Designator	DocumentName

"C1"	"ftdi_usb_uart_adapter.SchDoc"
"C2"	"ftdi_usb_uart_adapter.SchDoc"
"C3"	"ftdi_usb_uart_adapter.SchDoc"
"C4"	"ftdi_usb_uart_adapter.SchDoc"
"C5"	"ftdi_usb_uart_adapter.SchDoc"
"C6"	"ftdi_usb_uart_adapter.SchDoc"
"C7"	"ftdi_usb_uart_adapter.SchDoc"
"C50"	"msp430.SchDoc"
"C51"	"msp430.SchDoc"
"C52"	"msp430.SchDoc"
"C53"	"msp430.SchDoc"
"C54"	"msp430.SchDoc"
"C55"	"msp430.SchDoc"
"C56"	"msp430.SchDoc"
"C57"	"msp430.SchDoc"
"C100_A0"	"atten.SchDoc"
"C100_A1"	"atten.SchDoc"
"C100_A2"	"atten.SchDoc"
"C100_A3"	"atten.SchDoc"
"C101_A0"	"atten.SchDoc"
"C101_A1"	"atten.SchDoc"
"C101_A2"	"atten.SchDoc"
"C101_A3"	"atten.SchDoc"
"C200"	"top_lvl.SchDoc"
"C201"	"top_lvl.SchDoc"
"C202"	"top_lvl.SchDoc"
"C203"	"top_lvl.SchDoc"
"C204"	"top_lvl.SchDoc"
"J1"	"ftdi_usb_uart_adapter.SchDoc"
"J2"	"ftdi_usb_uart_adapter.SchDoc"
"JTAG50"	"msp430.SchDoc"
"P1"	"ftdi_usb_uart_adapter.SchDoc"
"P50"	"msp430.SchDoc"
"P51"	"msp430.SchDoc"
"R1"	"ftdi_usb_uart_adapter.SchDoc"
"R2"	"ftdi_usb_uart_adapter.SchDoc"
"R3"	"ftdi_usb_uart_adapter.SchDoc"
"R4"	"ftdi_usb_uart_adapter.SchDoc"
"R5"	"ftdi_usb_uart_adapter.SchDoc"
"R6"	"ftdi_usb_uart_adapter.SchDoc"
"R50"	"msp430.SchDoc"
"R51"	"msp430.SchDoc"
"S50"	"msp430.SchDoc"
"SMA200"	"top_lvl.SchDoc"
"SMA201"	"top_lvl.SchDoc"
"T200"	"top_lvl.SchDoc"
"T201"	"top_lvl.SchDoc"
"U1"	"ftdi_usb_uart_adapter.SchDoc"
"U50"	"msp430.SchDoc"
"U100_A0"	"atten.SchDoc"
"U100_A1"	"atten.SchDoc"
"U100_A2"	"atten.SchDoc"
"U100_A3"	"atten.SchDoc"
"Y50"	"msp430.SchDoc"
"Y51"	"msp430.SchDoc"
