Designator	DocumentName

"SH125"	"afe.SchDoc"
"C85"	"antenna.SchDoc"
"C86"	"antenna.SchDoc"
"C88"	"antenna.SchDoc"
"C91"	"antenna.SchDoc"
"J85"	"antenna.SchDoc"
"L85"	"antenna.SchDoc"
"L86"	"antenna.SchDoc"
"S85"	"antenna.SchDoc"
"C25"	"mcu.SchDoc"
"C26"	"mcu.SchDoc"
"C27"	"mcu.SchDoc"
"C28"	"mcu.SchDoc"
"C29"	"mcu.SchDoc"
"C30"	"mcu.SchDoc"
"C31"	"mcu.SchDoc"
"C32"	"mcu.SchDoc"
"C33"	"mcu.SchDoc"
"C34"	"mcu.SchDoc"
"D25"	"mcu.SchDoc"
"D26"	"mcu.SchDoc"
"D27"	"mcu.SchDoc"
"D28"	"mcu.SchDoc"
"P25"	"mcu.SchDoc"
"R25"	"mcu.SchDoc"
"R26"	"mcu.SchDoc"
"R27"	"mcu.SchDoc"
"R28"	"mcu.SchDoc"
"R29"	"mcu.SchDoc"
"R30"	"mcu.SchDoc"
"R31"	"mcu.SchDoc"
"R32"	"mcu.SchDoc"
"R33"	"mcu.SchDoc"
"S25"	"mcu.SchDoc"
"U25"	"mcu.SchDoc"
"Y25"	"mcu.SchDoc"
"Y26"	"mcu.SchDoc"
"C250"	"ook_config.SchDoc"
"C251"	"ook_config.SchDoc"
"C252"	"ook_config.SchDoc"
"R250"	"ook_config.SchDoc"
"R251"	"ook_config.SchDoc"
"R252"	"ook_config.SchDoc"
"R253"	"ook_config.SchDoc"
"R254"	"ook_config.SchDoc"
"R255"	"ook_config.SchDoc"
"U250"	"ook_config.SchDoc"
"C50"	"power.SchDoc"
"C51"	"power.SchDoc"
"C52"	"power.SchDoc"
"C53"	"power.SchDoc"
"C54"	"power.SchDoc"
"C55"	"power.SchDoc"
"C56"	"power.SchDoc"
"C57"	"power.SchDoc"
"C58"	"power.SchDoc"
"C62"	"power.SchDoc"
"C71"	"power.SchDoc"
"C72"	"power.SchDoc"
"C78"	"power.SchDoc"
"C79"	"power.SchDoc"
"D50"	"power.SchDoc"
"D51"	"power.SchDoc"
"D53"	"power.SchDoc"
"D55"	"power.SchDoc"
"F50"	"power.SchDoc"
"FB50"	"power.SchDoc"
"FB53"	"power.SchDoc"
"J50"	"power.SchDoc"
"Q50"	"power.SchDoc"
"R50"	"power.SchDoc"
"R51"	"power.SchDoc"
"R54"	"power.SchDoc"
"R56"	"power.SchDoc"
"R59"	"power.SchDoc"
"TVS50"	"power.SchDoc"
"U50"	"power.SchDoc"
"U53"	"power.SchDoc"
"C75"	"rf_detector.SchDoc"
"C76"	"rf_detector.SchDoc"
"C77"	"rf_detector.SchDoc"
"R75"	"rf_detector.SchDoc"
"R76"	"rf_detector.SchDoc"
"U75"	"rf_detector.SchDoc"
"U76"	"rf_detector.SchDoc"
"C150"	"rffe.SchDoc"
"C151"	"rffe.SchDoc"
"C152"	"rffe.SchDoc"
"C153"	"rffe.SchDoc"
"C154"	"rffe.SchDoc"
"C155"	"rffe.SchDoc"
"C156"	"rffe.SchDoc"
"C157"	"rffe.SchDoc"
"C158"	"rffe.SchDoc"
"C159"	"rffe.SchDoc"
"C160"	"rffe.SchDoc"
"FAN150"	"rffe.SchDoc"
"FB150"	"rffe.SchDoc"
"HS150"	"rffe.SchDoc"
"U150"	"rffe.SchDoc"
"T550"	"test_points.SchDoc"
"T553"	"test_points.SchDoc"
"T556"	"test_points.SchDoc"
"T559"	"test_points.SchDoc"
"R500"	"top_level.SchDoc"
"R502"	"top_level.SchDoc"
"S500"	"top_level.SchDoc"
"C100"	"transceiver.SchDoc"
"C101"	"transceiver.SchDoc"
"C102"	"transceiver.SchDoc"
"C103"	"transceiver.SchDoc"
"C104"	"transceiver.SchDoc"
"C105"	"transceiver.SchDoc"
"C106"	"transceiver.SchDoc"
"C107"	"transceiver.SchDoc"
"C108"	"transceiver.SchDoc"
"C109"	"transceiver.SchDoc"
"C110"	"transceiver.SchDoc"
"C111"	"transceiver.SchDoc"
"C112"	"transceiver.SchDoc"
"C113"	"transceiver.SchDoc"
"C114"	"transceiver.SchDoc"
"C115"	"transceiver.SchDoc"
"C116"	"transceiver.SchDoc"
"C117"	"transceiver.SchDoc"
"C118"	"transceiver.SchDoc"
"C119"	"transceiver.SchDoc"
"C120"	"transceiver.SchDoc"
"FB100"	"transceiver.SchDoc"
"L100"	"transceiver.SchDoc"
"L101"	"transceiver.SchDoc"
"L102"	"transceiver.SchDoc"
"L103"	"transceiver.SchDoc"
"R100"	"transceiver.SchDoc"
"R101"	"transceiver.SchDoc"
"R102"	"transceiver.SchDoc"
"R103"	"transceiver.SchDoc"
"R104"	"transceiver.SchDoc"
"S100"	"transceiver.SchDoc"
"SH100"	"transceiver.SchDoc"
"U100"	"transceiver.SchDoc"
"Y100"	"transceiver.SchDoc"
"Y101"	"transceiver.SchDoc"
"C1"	"usb.SchDoc"
"C2"	"usb.SchDoc"
"C3"	"usb.SchDoc"
"C4"	"usb.SchDoc"
"C5"	"usb.SchDoc"
"C6"	"usb.SchDoc"
"C7"	"usb.SchDoc"
"C8"	"usb.SchDoc"
"C9"	"usb.SchDoc"
"C10"	"usb.SchDoc"
"C11"	"usb.SchDoc"
"C12"	"usb.SchDoc"
"C14"	"usb.SchDoc"
"D1"	"usb.SchDoc"
"D2"	"usb.SchDoc"
"FB1"	"usb.SchDoc"
"FB2"	"usb.SchDoc"
"FB3"	"usb.SchDoc"
"R1"	"usb.SchDoc"
"R2"	"usb.SchDoc"
"R3"	"usb.SchDoc"
"R4"	"usb.SchDoc"
"R5"	"usb.SchDoc"
"R6"	"usb.SchDoc"
"R7"	"usb.SchDoc"
"R8"	"usb.SchDoc"
"R9"	"usb.SchDoc"
"R10"	"usb.SchDoc"
"S1"	"usb.SchDoc"
"U1"	"usb.SchDoc"
"U2"	"usb.SchDoc"
"U3"	"usb.SchDoc"
"U4"	"usb.SchDoc"
"USB1"	"usb.SchDoc"
"Y1"	"usb.SchDoc"
